%YAML 1.1
%TAG !u! tag:unity3d.com,2011:
--- !u!78 &1
TagManager:
  serializedVersion: 2
  tags:
  - Spikes
  - ForestGround
  - PickupItem
  - Water
  - ForestDecoration
  layers:
  - Default
  - TransparentFX
  - Ignore Raycast
  - 
  - Water
  - UI
  - 
  - 
  - Terrain
  - TerrainDecoration
  - 
  - 
  - 
  - 
  - 
  - 
  - 
  - 
  - 
  - 
  - 
  - 
  - 
  - 
  - 
  - 
  - 
  - 
  - 
  - 
  - 
  - 
  m_SortingLayers:
  - name: Default
    uniqueID: 0
    locked: 0
  - name: Ball2d
    uniqueID: 2947227477
    locked: 0
  - name: GUI_Background
    uniqueID: 287309379
    locked: 0
  - name: GUI_Particles
    uniqueID: 69859971
    locked: 0
  - name: GUI_Front
    uniqueID: 487768365
    locked: 0
  - name: GUI_FrontPopup
    uniqueID: 3644263685
    locked: 0
